…
Introduction

As of shinysurveys version 0.2.0, users can optionally split a survey over multiple pages. In this brief blog post, I’ll illustrate an example of this with the built-in data frame of questions from a recent study conducted by the D’Agostino McGowan Data Science Lab.

In addition to shinysurveys, I will use the packages dplyr and tidyr in this example for easily manipulating the data frame.

library(shinysurveys)
library(dplyr)
library(tidyr)

One Page Survey

teaching_r_questions is a data frame with eleven questions that follow the format of a shiny survey. The first ten rows look like this:1

## # A tibble: 54 x 7
##    question    option   input_type input_id dependence dependence_value required
##    <chr>       <chr>    <chr>      <chr>    <chr>      <chr>            <lgl>   
##  1 What's you… 25       numeric    age      <NA>       <NA>             TRUE    
##  2 Which best… Female   mc         gender   <NA>       <NA>             TRUE    
##  3 Which best… Male     mc         gender   <NA>       <NA>             TRUE    
##  4 Which best… Prefer … mc         gender   <NA>       <NA>             TRUE    
##  5 Which best… Prefer … mc         gender   <NA>       <NA>             TRUE    
##  6 Which best… <NA>     text       self_de… gender     Prefer to self … FALSE   
##  7 What is th… Did not… select     educati… <NA>       <NA>             FALSE   
##  8 What is th… Some hi… select     educati… <NA>       <NA>             FALSE   
##  9 What is th… High sc… select     educati… <NA>       <NA>             FALSE   
## 10 What is th… Some co… select     educati… <NA>       <NA>             FALSE   
## # … with 44 more rows
…
